[npc]
NULL
down
0
8
2
NULL
0
-1
0
false
false
false
[/npc]
[npc]
NULL
down
0
16
2
NULL
0
-1
1
false
false
false
[/npc]
[npc]
Radio Tower Staff
up
351
6
6
NULL
0
-1
2,3
false
false
false
[/npc]
[npc]
Mary
down
382
15
8
NULL
0
-1
4
false
false
false
[/npc]
[warp]
9
2
15
10
-49
-31
0
[/warp]
[warp]
17
2
25
10
-49
-31
0
[/warp]
[warp]
2
2
2
3
-32
-45
0
[/warp]
[warp]
14
2
13
3
-32
-45
0
[/warp]
