[npc]
NULL
down
0
4
2
NULL
0
-1
0
false
false
false
[/npc]
[npc]
NULL
down
0
11
2
NULL
0
-1
1
false
false
false
[/npc]
[npc]
NULL
down
0
16
2
NULL
0
-1
1
false
false
false
[/npc]
[npc]
Ben
left
97
14
7
NULL
0
-1
2
false
false
false
[/npc]
[npc]
Director
down
274
4
8
NULL
0
-1
3,4,5,6
false
false
false
[/npc]
[warp]
2
2
2
3
-32
-44
0
[/warp]
[warp]
13
2
14
3
-32
-44
0
[/warp]
