[warp]
77
122
62
11
36
-47
0
[/warp]
[warp]
77
113
77
48
-40
-38
0
[/warp]
[warp]
77
49
77
114
-40
-38
0
[/warp]
[warp]
68
112
53
112
-40
-38
0
[/warp]
[warp]
54
112
69
112
-40
-38
0
[/warp]
[warp]
86
112
99
112
-40
-38
0
[/warp]
[warp]
98
112
85
112
-40
-38
0
[/warp]
[warp]
77
109
77
94
-40
-38
0
[/warp]
[warp]
77
95
77
110
-40
-38
0
[/warp]
[warp]
62
91
62
81
-40
-38
0
[/warp]
[warp]
62
82
62
92
-40
-38
0
[/warp]
[warp]
69
91
69
81
-40
-38
0
[/warp]
[warp]
69
82
69
92
-40
-38
0
[/warp]
[warp]
77
91
77
81
-40
-38
0
[/warp]
[warp]
77
82
77
92
-40
-38
0
[/warp]
[warp]
85
91
85
81
-40
-38
0
[/warp]
[warp]
85
82
85
92
-40
-38
0
[/warp]
[warp]
92
91
92
81
-40
-38
0
[/warp]
[warp]
92
82
92
92
-40
-38
0
[/warp]