[warp]
29
63
5
51
3
-2
0
[/warp]
[warp]
4
9
5
12
3
-2
0
[/warp]
[warp]
5
9
5
12
3
-2
0
[/warp]
[warp]
6
9
5
12
3
-2
0
[/warp]
[npc]
NULL
down
0
31
60
NULL
0
-1
12,13
FALSE
FALSE
FALSE
[/npc]
[npc]
NULL
down
0
39
59
NULL
0
-1
12,14,15
FALSE
FALSE
FALSE
[/npc]
[npc]
NULL
down
0
28
44
NULL
0
-1
16
FALSE
FALSE
FALSE
[/npc]
[npc]
NULL
down
0
43
26
NULL
0
-1
12,17,18
FALSE
FALSE
FALSE
[/npc]
[npc]
NULL
down
0
9
29
NULL
0
-1
12,19,20
FALSE
FALSE
FALSE
[/npc]
[npc]
NULL
down
0
6
12
NULL
0
-1
21,22
FALSE
FALSE
FALSE
[/npc]
[npc]
Viridian Forest visitor
up
261
29
58
NULL
0
-1
8,9
FALSE
FALSE
FALSE
[/npc]
[npc]
Viridian Forest visitor
left
262
45
58
NULL
0
-1
10,11
FALSE
FALSE
FALSE
[/npc]
[npc]
Bug Catcher Sammy
LEFT
254
7
22
Weedle,9
1
-1
6,7
FALSE
FALSE
FALSE
[/npc]
[npc]
Bug Catcher Charlie
up
254
16
5
Metapod,7,Caterpie,7,Metapod,7
3
-1
5
FALSE
FALSE
FALSE
[/npc]
[npc]
Bug Catcher Rick
left
254
47
45
Weedle,6,Caterpie,6
2
-1
0,1
FALSE
FALSE
FALSE
[/npc]
[npc]
Bug Catcher Doug
left
254
47
29
Weedle,7,Kakuna,7,Weedle,7
3
-1
2,3
FALSE
FALSE
FALSE
[/npc]
[npc]
Bug Catcher Anthony
down
254
43
6
Caterpie,7,Caterpie,8
2
-1
4
FALSE
FALSE
FALSE
[/npc]
