[npc]
Copycat's father
left
274
8
5
NULL
0
-1
0,1
false
false
false
[/npc]
[npc]
Copycat's mother
down
275
3
4
NULL
0
-1
2
false
false
false
[/npc]
[warp]
5
10
26
15
6
-2
0
[/warp]
[warp]
12
3
10
3
-47
-23
0
[/warp]