[npc]
NULL
down
0
18
31
NULL
0
-1
1,2,3,4,5
false
false
false
[/npc]
[npc]
NULL
down
0
10
29
NULL
0
-1
6,7
false
false
false
[/npc]
[npc]
NULL
down
0
11
9
NULL
0
-1
8,7
false
false
false
[/npc]
[npc]
NULL
down
0
24
4
NULL
0
-1
9,7
false
false
false
[/npc]
[npc]
NULL
down
0
48
4
NULL
0
-1
10,7
false
false
false
[/npc]
[npc]
NULL
down
0
49
23
NULL
0
-1
11,7
false
false
false
[/npc]
[npc]
Burglar Quinn
left
352
8
19
Growlithe,36,Vulpix,36,Ninetales,36
3
-1
12
false
false
false
[/npc]
[npc]
Advisor
down
344
20
31
NULL
0
-1
13,14,15,16
false
false
false
[/npc]
[npc]
Supernerd Erik
down
352
12
4
Vulpix,36,Vulpix,36,Ninetales,36
3
-1
17
false
false
false
[/npc]
[npc]
Supernerd Avery
left
352
17
4
Ponyta,34,Charmander,34,Vulpix,34,Growlithe,34
4
-1
18
false
false
false
[/npc]
[npc]
Burglar Ramon
down
359
35
4
Ponyta,41
1
-1
19
false
false
false
[/npc]
[npc]
Supernerd Derek
left
352
40
4
Rapidash,41
1
-1
20
false
false
false
[/npc]
[npc]
Burglar Dusty
down
359
52
15
Vulpix,37,Growlithe,37
2
-1
21
false
false
false
[/npc]
[npc]
Supernerd Zac
down
352
39
32
Growlithe,37,Vulpix,37
2
-1
22
false
false
false
[/npc]
[npc]
Blaine
down
304
35
13
Arcanine,44,Rapidash,44,Ninetales,44,Charizard,44,Flareon,44,Houndoom,44
6
6
23,24,25,26
false
false
false
[/npc]
[warp]
21
38
17
6
3
3
0
[/warp]
[warp]
5
28
4
20
-48
-28
0
[/warp]
[warp]
8
28
4
10
-48
-28
0
[/warp]
[warp]
3
10
8
29
-48
-28
0
[/warp]
[warp]
7
18
4
10
-48
-28
0
[/warp]
[warp]
5
8
23
4
-48
-28
0
[/warp]
[warp]
23
3
5
9
-48
-28
0
[/warp]
[warp]
8
8
13
4
-48
-28
0
[/warp]
[warp]
16
3
23
4
-48
-28
0
[/warp]
[warp]
26
3
36
4
-48
-28
0
[/warp]
[warp]
29
3
46
4
-48
-28
0
[/warp]
[warp]
46
3
29
4
-48
-28
0
[/warp]
[warp]
39
3
46
4
-48
-28
0
[/warp]
[warp]
52
3
55
24
-48
-28
0
[/warp]
[warp]
56
24
52
4
-48
-28
0
[/warp]
[warp]
49
3
55
15
-48
-28
0
[/warp]
[warp]
51
13
55
24
-48
-28
0
[/warp]
[warp]
54
22
30
32
-48
-28
0
[/warp]
[warp]
30
31
54
23
-48
-28
0
[/warp]
[warp]
51
22
40
32
-48
-28
0
[/warp]