[npc]
Battlefrontier - battlearena lady - any lvl
down
316
8
7
NULL
0
-1
1
false
false
false
[/npc]
[npc]
NULL
down
0
14
6
NULL
0
-1
2
false
true
false
[/npc]
[warp]
8
13
101
28
29
26
0
[/warp]