[warp]
32
18
16
9
39
-48
0
[/warp]
[warp]
40
4
25
35
1
-47
0
[/warp]
[warp]
41
4
25
35
1
-47
0
[/warp]
[warp]
42
4
25
35
1
-47
0
[/warp]
[warp]
42
3
25
35
1
-47
0
[/warp]
[warp]
42
2
25
35
1
-47
0
[/warp]
[warp]
26
34
43
3
1
-47
0
[/warp]
[warp]
26
35
43
3
1
-47
0
[/warp]
[warp]
26
36
43
3
1
-47
0
[/warp]
[warp]
40
36
25
66
1
-47
0
[/warp]
[warp]
41
36
25
66
1
-47
0
[/warp]
[warp]
42
36
25
66
1
-47
0
[/warp]
[warp]
42
35
25
66
1
-47
0
[/warp]
[warp]
42
34
25
66
1
-47
0
[/warp]
[warp]
26
65
43
35
1
-47
0
[/warp]
[warp]
26
66
43
35
1
-47
0
[/warp]
[warp]
26
67
43
35
1
-47
0
[/warp]
[warp]
40
67
25
97
1
-47
0
[/warp]
[warp]
41
67
25
97
1
-47
0
[/warp]
[warp]
42
67
25
97
1
-47
0
[/warp]
[warp]
42
66
25
97
1
-47
0
[/warp]
[warp]
42
65
25
97
1
-47
0
[/warp]
[warp]
26
96
43
66
1
-47
0
[/warp]
[warp]
26
97
43
66
1
-47
0
[/warp]
[warp]
26
98
43
66
1
-47
0
[/warp]
[warp]
40
98
25
128
1
-47
0
[/warp]
[warp]
41
98
25
128
1
-47
0
[/warp]
[warp]
42
98
25
128
1
-47
0
[/warp]
[warp]
42
97
25
128
1
-47
0
[/warp]
[warp]
42
96
25
128
1
-47
0
[/warp]
[warp]
26
127
43
97
1
-47
0
[/warp]
[warp]
26
128
43
97
1
-47
0
[/warp]
[warp]
26
129
43
97
1
-47
0
[/warp]
[warp]
40
129
30
156
1
-47
0
[/warp]
[warp]
41
129
30
156
1
-47
0
[/warp]
[warp]
42
129
30
156
1
-47
0
[/warp]
[warp]
42
128
30
156
1
-47
0
[/warp]
[warp]
42
127
30
156
1
-47
0
[/warp]
[warp]
31
155
30
43
128
-47
0
[/warp]
[warp]
31
156
30
43
128
-47
0
[/warp]
[warp]
31
157
30
43
128
-47
0
[/warp]
[npc]
Regigigas	
down
0
33
164
Regigigas,100
1
-1
0
false
false
false
[/npc]


