[npc]
Rocket Grunt
left
179
10
15
Golbat,56,Raticate,58,Mightyena,53
3
-1
0
false
false
false
[/npc]
[npc]
Rocket Grunt
right
180
6
10
Zangoose,56,Seviper,58
2
-1
0
false
false
false
[/npc]
[npc]
Rocket Grunt
left
180
10
5
Purugly,56,Mismagius,58
2
-1
0
false
false
false
[/npc]
[warp]
14
20
6
23
2
-40
0
[/warp]
[warp]
14
19
6
23
2
-40
0
[/warp]
[warp]
14
18
6
23
2
-40
0
[/warp]
[warp]
14
17
6
23
2
-40
0
[/warp]
[warp]
8
1
14
39
2
-38
0
[/warp]