[warp]
22
6
15
16
10
49
0
[/warp]
[warp]
23
14
5
7
27
49
0
[/warp]
[warp]
16
14
16
26
-48
-44
0
[/warp]
[warp]
8
6
16
26
-48
-45
0
[/warp]
[warp]
15
7
20
25
-48
-46
0
[/warp]