[npc]
NULL
down
0
42
53
NULL
0
-1
1
false
false
false
[/npc]
[npc]
NPC
down
308
43
34
NULL
0
-1
9
false
false
false
[/npc]
[npc]
NPC
left
343
9
43
NULL
0
-1
8
false
false
false
[/npc]
[npc]
NPC
right
269
35
43
NULL
0
-1
7
false
false
false
[/npc]
[npc]
NULL
down
0
33
41
NULL
0
-1
6
false
false
false
[/npc]
[npc]
NULL
down
0
18
34
NULL
0
-1
0
false
false
false
[/npc]
[npc]
NPC
down
0
8
33
NULL
0
-1
4,5
false
false
false
[/npc]
[npc]
NULL
down
0
48
16
NULL
0
-1
3
false
false
false
[/npc]
[npc]
NPC
down
366
28
24
NULL
0
-1
13
false
false
false
[/npc]
[npc]
NPC
right
341
29
31
NULL
0
-1
10,11,12
false
false
false
[/npc]
[warp]
39
32
15
16
12
-49
0
[/warp]
[warp]
3
19
86
24
42
-44
0
[/warp]
[warp]
3
20
86
24
42
-44
0
[/warp]
[warp]
3
21
86
24
42
-44
0
[/warp]
[warp]
43
59
44
5
43
-43
0
[/warp]
[warp]
44
59
44
5
43
-43
0
[/warp]
[warp]
45
59
44
5
43
-43
0
[/warp]
[warp]
6
31
20
48
-47
48
0
[/warp]
[warp]
12
42
8
9
-38
-28
0
[/warp]
[warp]
18
42
10
8
-38
-32
0
[/warp]
[warp]
33
23
21
14
-38
-40
0
[/warp]
[warp]
39
23
10
8
-38
-43
0
[/warp]
[warp]
21
27
13
10
-41
-35
0
[/warp]
[warp]
22
13
29
10
-41
-24
0
[/warp]
[warp]
39
14
14
18
-41
-23
0
[/warp]
[warp]
42
14
35
18
-41
-23
0
[/warp]
[warp]
45
14
48
18
-41
-23
0
[/warp]
[warp]
30
41
20
24
-37
-41
0
[/warp]


